Lab3/Lab3test/lab3.vcd
$date
	Tue Apr 20 00:46:10 2021
$end
$version
	Icarus Verilog
$end
$timescale
	1ps
$end
$scope module testbench $end
$var reg 1 ! clk $end
$var reg 1 " rst_n $end
$var integer 32 # count [31:0] $end
$var integer 32 $ fp_w [31:0] $end
$scope module cpu $end
$var wire 1 ! clk_i $end
$var wire 32 % imm_4 [31:0] $end
$var wire 1 " rst_i $end
$var wire 1 & zero $end
$var wire 32 ' pc_o [31:0] $end
$var wire 32 ( pc_i [31:0] $end
$var wire 1 ) overflow $end
$var wire 32 * instr [31:0] $end
$var wire 1 + cout $end
$var wire 1 , RegWrite $end
$var wire 32 - RTdata_o [31:0] $end
$var wire 32 . RSdata_o [31:0] $end
$var wire 1 / Branch $end
$var wire 32 0 ALUresult [31:0] $end
$var wire 4 1 ALU_control [3:0] $end
$var wire 1 2 ALUSrc $end
$var wire 2 3 ALUOp [1:0] $end
$scope module ALU_Ctrl $end
$var wire 4 4 instr [3:0] $end
$var wire 2 5 ALUOp [1:0] $end
$var reg 4 6 ALU_Ctrl_o [3:0] $end
$upscope $end
$scope module Decoder $end
$var wire 2 7 ALUOp [1:0] $end
$var wire 1 2 ALUSrc $end
$var wire 1 / Branch $end
$var wire 1 , RegWrite $end
$var wire 7 8 opcode [6:0] $end
$var wire 32 9 instr_i [31:0] $end
$var wire 3 : funct3 [2:0] $end
$var wire 9 ; Ctrl_o [8:0] $end
$var reg 2 < ao [1:0] $end
$var reg 1 = as $end
$var reg 1 > b $end
$var reg 1 ? rw $end
$upscope $end
$scope module IM $end
$var wire 32 @ instr_o [31:0] $end
$var wire 32 A addr_i [31:0] $end
$var integer 32 B i [31:0] $end
$upscope $end
$scope module PC $end
$var wire 1 ! clk_i $end
$var wire 1 " rst_i $end
$var wire 32 C pc_i [31:0] $end
$var reg 32 D pc_o [31:0] $end
$upscope $end
$scope module PC_plus_4_Adder $end
$var wire 32 E src1_i [31:0] $end
$var wire 32 F src2_i [31:0] $end
$var wire 32 G sum_o [31:0] $end
$var reg 32 H ans [31:0] $end
$upscope $end
$scope module RF $end
$var wire 5 I RDaddr_i [4:0] $end
$var wire 5 J RSaddr_i [4:0] $end
$var wire 32 K RSdata_o [31:0] $end
$var wire 5 L RTaddr_i [4:0] $end
$var wire 32 M RTdata_o [31:0] $end
$var wire 1 , RegWrite_i $end
$var wire 1 ! clk_i $end
$var wire 1 " rst_i $end
$var wire 32 N RDdata_i [31:0] $end
$upscope $end
$scope module alu $end
$var wire 4 O ALU_control [3:0] $end
$var wire 1 " rst_n $end
$var wire 32 P src1 [31:0] $end
$var wire 32 Q src2 [31:0] $end
$var reg 32 R a [31:0] $end
$var reg 32 S b [31:0] $end
$var reg 32 T c [31:0] $end
$var reg 1 + cout $end
$var reg 1 ) overflow $end
$var reg 32 U result [31:0] $end
$var reg 1 & zero $end
$var integer 32 V co [31:0] $end
$var integer 32 W i [31:0] $end
$upscope $end
$upscope $end
$upscope $end
$enddefinitions $end
#0
$dumpvars
bx W
bx V
bx U
bx T
bx S
bx R
bx Q
bx P
bx O
bx N
bx M
bx L
bx K
bx J
bx I
bx H
bx G
b100 F
bx E
bx D
bx C
b100000 B
bx A
bx @
x?
x>
x=
bx <
bx ;
bx :
bx 9
bx 8
bx 7
bx 6
bx 5
bx 4
bx 3
x2
bx 1
bx 0
x/
bx .
bx -
x,
x+
bx *
x)
bx (
bx '
x&
b100 %
b10 $
b0 #
0"
0!
$end
#5000
0+
0)
b100 1
b100 6
b100 O
b10 3
b10 5
b10 7
b10 <
0/
0>
1,
1?
02
0=
b100 (
b100 C
b100 G
b100 H
b101100 ;
b1 :
b110011 8
b1 4
b11 I
b10 -
b10 M
b10 Q
b10 L
b1 .
b1 K
b1 P
b1 J
b1000001001000110110011 *
b1000001001000110110011 9
b1000001001000110110011 @
b0 '
b0 A
b0 D
b0 E
b1 #
1!
#10000
0&
b100 0
b100 N
b100 U
b10 S
b1 R
0!
1"
#15000
b101 1
b101 6
b101 O
b1000 (
b1000 C
b1000 G
b1000 H
b10 0
b10 N
b10 U
b1 S
b100 R
b110101100 ;
b101 :
b1101 4
b100 I
b1 -
b1 M
b1 Q
b1 L
b100 .
b100 K
b100 P
b11 J
b1000000000100011101001000110011 *
b1000000000100011101001000110011 9
b1000000000100011101001000110011 @
b100 '
b100 A
b100 D
b100 E
b10 #
1!
#20000
0!
#25000
b100000 W
b0 V
b0 T
b10 1
b10 6
b10 O
b1100 (
b1100 C
b1100 G
b1100 H
1&
b0 0
b0 N
b0 U
b0 S
b0 R
b0 ;
b0 :
b0 8
b0 4
b0 I
b0 -
b0 M
b0 Q
b0 L
b0 .
b0 K
b0 P
b0 J
b0 *
b0 9
b0 @
b1000 '
b1000 A
b1000 D
b1000 E
b11 #
1!
#30000
0!
#35000
b10000 (
b10000 C
b10000 G
b10000 H
b1100 '
b1100 A
b1100 D
b1100 E
b100 #
1!
#40000
0!
#45000
b10100 (
b10100 C
b10100 G
b10100 H
b10000 '
b10000 A
b10000 D
b10000 E
b101 #
1!
#50000
0!
#55000
b11000 (
b11000 C
b11000 G
b11000 H
b10100 '
b10100 A
b10100 D
b10100 E
b110 #
1!
#60000
0!
#65000
b11100 (
b11100 C
b11100 G
b11100 H
b11000 '
b11000 A
b11000 D
b11000 E
b111 #
1!
#70000
0!
#75000
b100000 (
b100000 C
b100000 G
b100000 H
b11100 '
b11100 A
b11100 D
b11100 E
b1000 #
1!
#80000
0!
#85000
b100100 (
b100100 C
b100100 G
b100100 H
b100000 '
b100000 A
b100000 D
b100000 E
b1001 #
1!
#90000
0!
#95000
b101000 (
b101000 C
b101000 G
b101000 H
b100100 '
b100100 A
b100100 D
b100100 E
b1010 #
1!
#100000
0!
#105000
b101100 (
b101100 C
b101100 G
b101100 H
b101000 '
b101000 A
b101000 D
b101000 E
b1011 #
1!
#110000
0!
#115000
b110000 (
b110000 C
b110000 G
b110000 H
b101100 '
b101100 A
b101100 D
b101100 E
b1100 #
1!
#120000
0!
#125000
b110100 (
b110100 C
b110100 G
b110100 H
b110000 '
b110000 A
b110000 D
b110000 E
b1101 #
1!
#130000
0!
#135000
b111000 (
b111000 C
b111000 G
b111000 H
b110100 '
b110100 A
b110100 D
b110100 E
b1110 #
1!
#140000
0!
#145000
b111100 (
b111100 C
b111100 G
b111100 H
b111000 '
b111000 A
b111000 D
b111000 E
b1111 #
1!
#150000
0!
#155000
b1000000 (
b1000000 C
b1000000 G
b1000000 H
b111100 '
b111100 A
b111100 D
b111100 E
b10000 #
1!
#160000
0!
#165000
b1000100 (
b1000100 C
b1000100 G
b1000100 H
b1000000 '
b1000000 A
b1000000 D
b1000000 E
b10001 #
1!
#170000
0!
#175000
b1001000 (
b1001000 C
b1001000 G
b1001000 H
b1000100 '
b1000100 A
b1000100 D
b1000100 E
b10010 #
1!
#180000
0!
#185000
b1001100 (
b1001100 C
b1001100 G
b1001100 H
b1001000 '
b1001000 A
b1001000 D
b1001000 E
b10011 #
1!
#190000
0!
#195000
b1010000 (
b1010000 C
b1010000 G
b1010000 H
b1001100 '
b1001100 A
b1001100 D
b1001100 E
b10100 #
1!
#200000
0!
#205000
b1010100 (
b1010100 C
b1010100 G
b1010100 H
b1010000 '
b1010000 A
b1010000 D
b1010000 E
b10101 #
1!
#210000
0!
#215000
b1011000 (
b1011000 C
b1011000 G
b1011000 H
b1010100 '
b1010100 A
b1010100 D
b1010100 E
b10110 #
1!
#220000
0!
#225000
b1011100 (
b1011100 C
b1011100 G
b1011100 H
b1011000 '
b1011000 A
b1011000 D
b1011000 E
b10111 #
1!
#230000
0!
#235000
b1100000 (
b1100000 C
b1100000 G
b1100000 H
b1011100 '
b1011100 A
b1011100 D
b1011100 E
b11000 #
1!
#240000
0!
#245000
b1100100 (
b1100100 C
b1100100 G
b1100100 H
b1100000 '
b1100000 A
b1100000 D
b1100000 E
b11001 #
1!
#250000
0!
#255000
b1101000 (
b1101000 C
b1101000 G
b1101000 H
b1100100 '
b1100100 A
b1100100 D
b1100100 E
b11010 #
1!
#260000
0!
#265000
b1101100 (
b1101100 C
b1101100 G
b1101100 H
b1101000 '
b1101000 A
b1101000 D
b1101000 E
b11011 #
1!
#270000
0!
#275000
b1110000 (
b1110000 C
b1110000 G
b1110000 H
b1101100 '
b1101100 A
b1101100 D
b1101100 E
b11100 #
1!
#280000
0!
#285000
b1110100 (
b1110100 C
b1110100 G
b1110100 H
b1110000 '
b1110000 A
b1110000 D
b1110000 E
b11101 #
1!
#290000
0!
#295000
b1111000 (
b1111000 C
b1111000 G
b1111000 H
b1110100 '
b1110100 A
b1110100 D
b1110100 E
b11110 #
1!
#300000
0!
#305000
b1111100 (
b1111100 C
b1111100 G
b1111100 H
b1111000 '
b1111000 A
b1111000 D
b1111000 E
b11111 #
1!
#310000
0!
#315000
b10000000 (
b10000000 C
b10000000 G
b10000000 H
b1111100 '
b1111100 A
b1111100 D
b1111100 E
b100000 #
1!
#320000
0!
#325000
b10000100 (
b10000100 C
b10000100 G
b10000100 H
x+
b0x V
b100000 W
bx 0
bx N
bx U
x&
bx T
bx S
bx R
bx ;
bx :
bx 8
bx 4
bx I
bx -
bx M
bx Q
bx L
bx .
bx K
bx P
bx J
bx *
bx 9
bx @
b10000000 '
b10000000 A
b10000000 D
b10000000 E
b100001 #
1!
#330000
0!
#335000
b10001000 (
b10001000 C
b10001000 G
b10001000 H
b10000100 '
b10000100 A
b10000100 D
b10000100 E
b100010 #
1!
#340000
0!
#345000
b10001100 (
b10001100 C
b10001100 G
b10001100 H
b10001000 '
b10001000 A
b10001000 D
b10001000 E
b100011 #
1!
#350000
0!
#355000
b10010000 (
b10010000 C
b10010000 G
b10010000 H
b10001100 '
b10001100 A
b10001100 D
b10001100 E
b100100 #
1!
#360000
0!
#365000
b10010100 (
b10010100 C
b10010100 G
b10010100 H
b10010000 '
b10010000 A
b10010000 D
b10010000 E
b100101 #
1!
#370000
0!
#375000
b10011000 (
b10011000 C
b10011000 G
b10011000 H
b10010100 '
b10010100 A
b10010100 D
b10010100 E
b100110 #
1!
#380000
0!
#385000
b10011100 (
b10011100 C
b10011100 G
b10011100 H
b10011000 '
b10011000 A
b10011000 D
b10011000 E
b100111 #
1!
#390000
0!
#395000
b10100000 (
b10100000 C
b10100000 G
b10100000 H
b10011100 '
b10011100 A
b10011100 D
b10011100 E
b101000 #
1!
#400000
0!
#405000
b10100100 (
b10100100 C
b10100100 G
b10100100 H
b10100000 '
b10100000 A
b10100000 D
b10100000 E
b101001 #
1!
#410000
0!
#415000
b10101000 (
b10101000 C
b10101000 G
b10101000 H
b10100100 '
b10100100 A
b10100100 D
b10100100 E
b101010 #
1!
#420000
0!
#425000
b10101100 (
b10101100 C
b10101100 G
b10101100 H
b10101000 '
b10101000 A
b10101000 D
b10101000 E
b101011 #
1!
#430000
0!
#435000
b10110000 (
b10110000 C
b10110000 G
b10110000 H
b10101100 '
b10101100 A
b10101100 D
b10101100 E
b101100 #
1!
#440000
0!
#445000
b10110100 (
b10110100 C
b10110100 G
b10110100 H
b10110000 '
b10110000 A
b10110000 D
b10110000 E
b101101 #
1!
#450000
0!
#455000
b10111000 (
b10111000 C
b10111000 G
b10111000 H
b10110100 '
b10110100 A
b10110100 D
b10110100 E
b101110 #
1!
#460000
0!
#465000
b10111100 (
b10111100 C
b10111100 G
b10111100 H
b10111000 '
b10111000 A
b10111000 D
b10111000 E
b101111 #
1!
#470000
0!
#475000
b11000000 (
b11000000 C
b11000000 G
b11000000 H
b10111100 '
b10111100 A
b10111100 D
b10111100 E
b110000 #
1!
#480000
0!
#485000
b11000100 (
b11000100 C
b11000100 G
b11000100 H
b11000000 '
b11000000 A
b11000000 D
b11000000 E
b110001 #
1!
#490000
0!
#495000
b11001000 (
b11001000 C
b11001000 G
b11001000 H
b11000100 '
b11000100 A
b11000100 D
b11000100 E
b110010 #
1!
#500000
0!
#505000
b11001100 (
b11001100 C
b11001100 G
b11001100 H
b11001000 '
b11001000 A
b11001000 D
b11001000 E
b110011 #
1!
#510000
0!
#515000
b11010000 (
b11010000 C
b11010000 G
b11010000 H
b11001100 '
b11001100 A
b11001100 D
b11001100 E
b110100 #
1!
#520000
0!
#525000
b11010100 (
b11010100 C
b11010100 G
b11010100 H
b11010000 '
b11010000 A
b11010000 D
b11010000 E
b110101 #
1!
#530000
0!
#535000
b11011000 (
b11011000 C
b11011000 G
b11011000 H
b11010100 '
b11010100 A
b11010100 D
b11010100 E
b110110 #
1!
#540000
0!
#545000
b11011100 (
b11011100 C
b11011100 G
b11011100 H
b11011000 '
b11011000 A
b11011000 D
b11011000 E
b110111 #
1!
#550000
0!
#555000
b11100000 (
b11100000 C
b11100000 G
b11100000 H
b11011100 '
b11011100 A
b11011100 D
b11011100 E
b111000 #
1!
#560000
0!
#565000
b11100100 (
b11100100 C
b11100100 G
b11100100 H
b11100000 '
b11100000 A
b11100000 D
b11100000 E
b111001 #
1!
#570000
0!
#575000
b11101000 (
b11101000 C
b11101000 G
b11101000 H
b11100100 '
b11100100 A
b11100100 D
b11100100 E
b111010 #
1!
#580000
0!
#585000
b11101100 (
b11101100 C
b11101100 G
b11101100 H
b11101000 '
b11101000 A
b11101000 D
b11101000 E
b111011 #
1!
#590000
0!
#595000
b11110000 (
b11110000 C
b11110000 G
b11110000 H
b11101100 '
b11101100 A
b11101100 D
b11101100 E
b111100 #
1!
#600000
0!
#605000
b11110100 (
b11110100 C
b11110100 G
b11110100 H
b11110000 '
b11110000 A
b11110000 D
b11110000 E
b111101 #
1!
#610000
0!
#615000
b11111000 (
b11111000 C
b11111000 G
b11111000 H
b11110100 '
b11110100 A
b11110100 D
b11110100 E
b111110 #
1!
#620000
0!
#625000
b11111100 (
b11111100 C
b11111100 G
b11111100 H
b11111000 '
b11111000 A
b11111000 D
b11111000 E
b111111 #
1!
#630000
0!
#635000
b100000000 (
b100000000 C
b100000000 G
b100000000 H
b11111100 '
b11111100 A
b11111100 D
b11111100 E
b1000000 #
1!
#640000
0!
#645000
b100000100 (
b100000100 C
b100000100 G
b100000100 H
b100000000 '
b100000000 A
b100000000 D
b100000000 E
b1000001 #
1!
#650000
0!
#655000
b100001000 (
b100001000 C
b100001000 G
b100001000 H
b100000100 '
b100000100 A
b100000100 D
b100000100 E
b1000010 #
1!
#660000
0!
#665000
b100001100 (
b100001100 C
b100001100 G
b100001100 H
b100001000 '
b100001000 A
b100001000 D
b100001000 E
b1000011 #
1!
#670000
0!
#675000
b100010000 (
b100010000 C
b100010000 G
b100010000 H
b100001100 '
b100001100 A
b100001100 D
b100001100 E
b1000100 #
1!
#680000
0!
#685000
b100010100 (
b100010100 C
b100010100 G
b100010100 H
b100010000 '
b100010000 A
b100010000 D
b100010000 E
b1000101 #
1!
#690000
0!
#695000
b100011000 (
b100011000 C
b100011000 G
b100011000 H
b100010100 '
b100010100 A
b100010100 D
b100010100 E
b1000110 #
1!
#700000
0!
#705000
b100011100 (
b100011100 C
b100011100 G
b100011100 H
b100011000 '
b100011000 A
b100011000 D
b100011000 E
b1000111 #
1!
#710000
0!
#715000
b100100000 (
b100100000 C
b100100000 G
b100100000 H
b100011100 '
b100011100 A
b100011100 D
b100011100 E
b1001000 #
1!
#720000
0!
#725000
b100100100 (
b100100100 C
b100100100 G
b100100100 H
b100100000 '
b100100000 A
b100100000 D
b100100000 E
b1001001 #
1!
#730000
0!
#735000
b100101000 (
b100101000 C
b100101000 G
b100101000 H
b100100100 '
b100100100 A
b100100100 D
b100100100 E
b1001010 #
1!
#740000
0!
#745000
b100101100 (
b100101100 C
b100101100 G
b100101100 H
b100101000 '
b100101000 A
b100101000 D
b100101000 E
b1001011 #
1!
#750000
0!
#755000
b100110000 (
b100110000 C
b100110000 G
b100110000 H
b100101100 '
b100101100 A
b100101100 D
b100101100 E
b1001100 #
1!
#760000
0!
#765000
b100110100 (
b100110100 C
b100110100 G
b100110100 H
b100110000 '
b100110000 A
b100110000 D
b100110000 E
b1001101 #
1!
#770000
0!
#775000
b100111000 (
b100111000 C
b100111000 G
b100111000 H
b100110100 '
b100110100 A
b100110100 D
b100110100 E
b1001110 #
1!
#780000
0!
#785000
b100111100 (
b100111100 C
b100111100 G
b100111100 H
b100111000 '
b100111000 A
b100111000 D
b100111000 E
b1001111 #
1!
#790000
0!
#795000
b101000000 (
b101000000 C
b101000000 G
b101000000 H
b100111100 '
b100111100 A
b100111100 D
b100111100 E
b1010000 #
1!
#800000
0!
#805000
b101000100 (
b101000100 C
b101000100 G
b101000100 H
b101000000 '
b101000000 A
b101000000 D
b101000000 E
b1010001 #
1!
#810000
0!
#815000
b101001000 (
b101001000 C
b101001000 G
b101001000 H
b101000100 '
b101000100 A
b101000100 D
b101000100 E
b1010010 #
1!
#820000
0!
#825000
b101001100 (
b101001100 C
b101001100 G
b101001100 H
b101001000 '
b101001000 A
b101001000 D
b101001000 E
b1010011 #
1!
#830000
0!
#835000
b101010000 (
b101010000 C
b101010000 G
b101010000 H
b101001100 '
b101001100 A
b101001100 D
b101001100 E
b1010100 #
1!
#840000
0!
#845000
b101010100 (
b101010100 C
b101010100 G
b101010100 H
b101010000 '
b101010000 A
b101010000 D
b101010000 E
b1010101 #
1!
#850000
0!
#855000
b101011000 (
b101011000 C
b101011000 G
b101011000 H
b101010100 '
b101010100 A
b101010100 D
b101010100 E
b1010110 #
1!
#860000
0!
#865000
b101011100 (
b101011100 C
b101011100 G
b101011100 H
b101011000 '
b101011000 A
b101011000 D
b101011000 E
b1010111 #
1!
#870000
0!
#875000
b101100000 (
b101100000 C
b101100000 G
b101100000 H
b101011100 '
b101011100 A
b101011100 D
b101011100 E
b1011000 #
1!
#880000
0!
#885000
b101100100 (
b101100100 C
b101100100 G
b101100100 H
b101100000 '
b101100000 A
b101100000 D
b101100000 E
b1011001 #
1!
#890000
0!
#895000
b101101000 (
b101101000 C
b101101000 G
b101101000 H
b101100100 '
b101100100 A
b101100100 D
b101100100 E
b1011010 #
1!
#900000
0!
#905000
b101101100 (
b101101100 C
b101101100 G
b101101100 H
b101101000 '
b101101000 A
b101101000 D
b101101000 E
b1011011 #
1!
#910000
0!
#915000
b101110000 (
b101110000 C
b101110000 G
b101110000 H
b101101100 '
b101101100 A
b101101100 D
b101101100 E
b1011100 #
1!
#920000
0!
#925000
b101110100 (
b101110100 C
b101110100 G
b101110100 H
b101110000 '
b101110000 A
b101110000 D
b101110000 E
b1011101 #
1!
#930000
0!
#935000
b101111000 (
b101111000 C
b101111000 G
b101111000 H
b101110100 '
b101110100 A
b101110100 D
b101110100 E
b1011110 #
1!
#940000
0!
#945000
b101111100 (
b101111100 C
b101111100 G
b101111100 H
b101111000 '
b101111000 A
b101111000 D
b101111000 E
b1011111 #
1!
#950000
0!
#955000
b110000000 (
b110000000 C
b110000000 G
b110000000 H
b101111100 '
b101111100 A
b101111100 D
b101111100 E
b1100000 #
1!
#960000
0!
#965000
b110000100 (
b110000100 C
b110000100 G
b110000100 H
b110000000 '
b110000000 A
b110000000 D
b110000000 E
b1100001 #
1!
#970000
0!
#975000
b110001000 (
b110001000 C
b110001000 G
b110001000 H
b110000100 '
b110000100 A
b110000100 D
b110000100 E
b1100010 #
1!
#980000
0!
#985000
b110001100 (
b110001100 C
b110001100 G
b110001100 H
b110001000 '
b110001000 A
b110001000 D
b110001000 E
b1100011 #
1!
#990000
0!
#995000
b110010000 (
b110010000 C
b110010000 G
b110010000 H
b110001100 '
b110001100 A
b110001100 D
b110001100 E
b1100100 #
1!
#1000000
0!
#1005000
b110010100 (
b110010100 C
b110010100 G
b110010100 H
b110010000 '
b110010000 A
b110010000 D
b110010000 E
b1100101 #
1!
